Project 1
…
## # A tibble: 1 x 2
##   Player          starter
##   <chr>             <dbl>
## 1 Justise Winslow   0.511

I then found the players with the highest probability of becoming a superstar and starter. Marcus Smart had the highest probability of becoming a superstar with a 16.35% chance. Justise Winslow had the highest probilibty of becoming a starter with a 51.09% chance.

# Players per college
full_data %>% group_by(College) %>% select(Player) %>% summarise_all(n_distinct) %>% 
    arrange(desc(Player))

## # A tibble: 37 x 2
##    College    Player
##    <fct>       <int>
##  1 Kentucky        7
##  2 Duke            5
##  3 UCLA            5
##  4 Arizona         4
##  5 Louisville      3
##  6 Stanford        3
##  7 Syracuse        3
##  8 Kansas          2
##  9 LSU             2
## 10 Michigan        2
## # … with 27 more rows

I found the number of players hailing from each college and ranked them in descending order.

# Players per Team
full_data %>% group_by(Tm) %>% select(Player) %>% summarise_all(n_distinct) %>% 
    arrange(desc(Player))

## # A tibble: 29 x 2
##    Tm    Player
##    <fct>  <int>
##  1 PHI        7
##  2 BOS        5
##  3 MIA        4
##  4 MIL        4
##  5 PHO        4
##  6 CHH        3
##  7 CLE        3
##  8 DET        3
##  9 HOU        3
## 10 MIN        3
## # … with 19 more rows

I found the sum of the of players each team drafted in the 2014 and 2015 drafts.

# mean statistics for the players from a specific college,
# all players coming from the 2014 or 2015 NBA draft
full_data %>% group_by(College) %>% summarize(mean_ppg = mean(ppg, 
    na.rm = T)) %>% arrange(desc(mean_ppg))

## # A tibble: 37 x 2
##    College      mean_ppg
##    <fct>           <dbl>
##  1 Kansas          21.8 
##  2 NC State        15.5 
##  3 Missouri        14.8 
##  4 Colorado        12.9 
##  5 Texas           12.7 
##  6 Kentucky        12.5 
##  7 LA-Lafayette    11.0 
##  8 Duke            10.6 
##  9 Arkansas        10.2 
## 10 Tennessee        9.63
## # … with 27 more rows

full_data %>% group_by(College) %>% summarize(mean_mpg = mean(mpg, 
    na.rm = T)) %>% arrange(desc(mean_mpg))

## # A tibble: 37 x 2
##    College        mean_mpg
##    <fct>             <dbl>
##  1 Kansas             33.1
##  2 LA-Lafayette       29.3
##  3 NC State           28.8
##  4 Texas              28.3
##  5 Missouri           27.0
##  6 Colorado           25.7
##  7 Duke               24.6
##  8 Kentucky           24.0
##  9 Oklahoma State     22.4
## 10 Tennessee          22.2
## # … with 27 more rows

full_data %>% group_by(College) %>% summarize(mean_apg = mean(apg, 
    na.rm = T)) %>% arrange(desc(mean_apg))

## # A tibble: 37 x 2
##    College        mean_apg
##    <fct>             <dbl>
##  1 LA-Lafayette       6.63
##  2 Colorado           4.98
##  3 Utah               2.88
##  4 Kansas             2.73
##  5 Oklahoma State     2.61
##  6 Missouri           2.57
##  7 Murray State       2.52
##  8 UConn              2.46
##  9 Kentucky           2.28
## 10 Duke               2.24
## # … with 27 more rows

full_data %>% group_by(College) %>% summarize(mean_rpg = mean(rpg, 
    na.rm = T)) %>% arrange(desc(mean_rpg))

## # A tibble: 37 x 2
##    College       mean_rpg
##    <fct>            <dbl>
##  1 Kansas            7.91
##  2 Texas             6.65
##  3 Arkansas          5.94
##  4 Kentucky          5.41
##  5 Indiana           5.20
##  6 Bowling Green     4.99
##  7 LA-Lafayette      4.40
##  8 Arizona           4.17
##  9 NC State          4.14
## 10 Duke              4.11
## # … with 27 more rows

I found the mean statistics of all the players from a specific college and grouped by that college.

# max statistics for players from a specific team, all
# players coming from the 2014 or 2015 NBA draft
full_data %>% group_by(Tm) %>% summarize(max(ppg))

## # A tibble: 29 x 2
##    Tm    `max(ppg)`
##    <fct>      <dbl>
##  1 ATL         4.01
##  2 BOS         9.85
##  3 BRK         4.79
##  4 CHH         7.73
##  5 CHI        12.1 
##  6 CHO         9.77
##  7 CLE        19.7 
##  8 DAL         5.23
##  9 DEN         8.22
## 10 DET        12.9 
## # … with 19 more rows

full_data %>% group_by(Tm) %>% summarize(max(mpg))

## # A tibble: 29 x 2
##    Tm    `max(mpg)`
##    <fct>      <dbl>
##  1 ATL         13.1
##  2 BOS         28.9
##  3 BRK         15.7
##  4 CHH         18.7
##  5 CHI         29.0
##  6 CHO         21.9
##  7 CLE         35.8
##  8 DAL         13.1
##  9 DEN         19.9
## 10 DET         25.7
## # … with 19 more rows

full_data %>% group_by(Tm) %>% summarize(max(apg))

## # A tibble: 29 x 2
##    Tm    `max(apg)`
##    <fct>      <dbl>
##  1 ATL        0.617
##  2 BOS        4.06 
##  3 BRK        1.27 
##  4 CHH        2.46 
##  5 CHI        2.12 
##  6 CHO        1.64 
##  7 CLE        3.55 
##  8 DAL        0.668
##  9 DEN        0.846
## 10 DET        4.98 
## # … with 19 more rows

full_data %>% group_by(Tm) %>% summarize(max(rpg))

## # A tibble: 29 x 2
##    Tm    `max(rpg)`
##    <fct>      <dbl>
##  1 ATL         2.94
##  2 BOS         3.73
##  3 BRK         2.78
##  4 CHH         5.20
##  5 CHI         5.94
##  6 CHO         4.04
##  7 CLE         4.35
##  8 DAL         2.54
##  9 DEN         2.20
## 10 DET         3.23
## # … with 19 more rows
…
## # A tibble: 1 x 3
##   med.ppg med.apg med.rpg
##     <dbl>   <dbl>   <dbl>
## 1    14.9    2.73    5.73

I filtered my data by selecting only players with a 8% probability of becoming a superstar, then found the median per game statistics for those players.

# Eeach teams highest probability of being a superstar player
# for each position
full_data %>% group_by(Tm, Position) %>% select(Player, Tm, Position, 
    superstar) %>% top_n(1, superstar)

## # A tibble: 57 x 4
## # Groups:   Tm, Position [57]
##    Player              Tm    Position superstar
##    <chr>               <fct> <chr>        <dbl>
##  1 Karl-Anthony Towns  MIN   C          0.135  
##  2 Willie Cauley-Stein SAC   C          0.0471 
##  3 Stanley Johnson     DET   SF         0.0678 
##  4 Frank Kaminsky      CHO   C          0.00672
##  5 Justise Winslow     MIA   SF         0.0835 
##  6 Myles Turner        IND   PF         0.0294 
##  7 Trey Lyles          UTA   PF         0.0224 
##  8 Devin Booker        PHO   SG         0.0734 
##  9 Cameron Payne       OKC   PG         0.00953
## 10 Rashad Vaughn       MIL   SG         0.0207 
## # … with 47 more rows
…
